<svg width="20" height="20" viewBox="0 0 20 20" fill="none" xmlns="http://www.w3.org/2000/svg">
<g clip-path="url(#clip0)">
<path d="M19.3885 4.02826C19.0175 3.65725 18.416 3.65725 18.045 4.02826L6.66341 15.41L2.28852 11.0351C1.91754 10.664 1.31607 10.6641 0.945012 11.0351C0.573993 11.406 0.573993 12.0075 0.945012 12.3785L5.99166 17.4251C6.36253 17.7961 6.96444 17.7958 7.33516 17.4251L19.3885 5.37177C19.7595 5.00079 19.7595 4.39928 19.3885 4.02826Z" fill="#333333"/>
</g>
<defs>
<clipPath id="clip0">
<rect width="20" height="20" fill="white"/>
</clipPath>
</defs>
</svg>
