<svg width="48" height="48" viewBox="0 0 48 48" fill="none" xmlns="http://www.w3.org/2000/svg">
<path d="M33.6915 37.1818C33.6915 37.96 33.9627 38.624 34.5032 39.174C35.0436 39.7245 35.6966 39.9999 36.4616 39.9999C37.2255 39.9999 37.8785 39.7245 38.4189 39.174C38.9599 38.624 39.2305 37.96 39.2305 37.1818C39.2305 36.4036 38.9602 35.7396 38.4189 35.1891C37.8785 34.6391 37.2255 34.3636 36.4616 34.3636C35.6966 34.3636 35.0436 34.6391 34.5032 35.1891C33.9627 35.7396 33.6915 36.4036 33.6915 37.1818Z" fill="#333333"/>
<path d="M41.5888 12.2363C41.3147 11.9573 40.9904 11.8178 40.6153 11.8178H14.6323C14.6176 11.7152 14.5852 11.5282 14.5347 11.2567C14.4843 10.985 14.4447 10.7686 14.4158 10.607C14.3868 10.446 14.333 10.2514 14.2535 10.0239C14.1742 9.79628 14.0805 9.6163 13.9723 9.48451C13.8643 9.35203 13.7201 9.23859 13.5398 9.14289C13.3596 9.04781 13.1539 9 12.9233 9H7.38488C7.00964 9 6.68517 9.13973 6.41116 9.41827C6.13708 9.69711 6 10.0275 6 10.4091C6 10.7907 6.13708 11.121 6.41116 11.3998C6.68539 11.6787 7.00994 11.8181 7.38488 11.8181H11.7979L15.627 29.9381C15.5983 29.9967 15.4505 30.2753 15.1835 30.7746C14.9167 31.2739 14.704 31.7104 14.5455 32.0846C14.3869 32.4593 14.3076 32.7491 14.3076 32.9544C14.3076 33.336 14.4446 33.6663 14.7186 33.9456C14.993 34.2237 15.3173 34.3637 15.6924 34.3637H17.0769H36.4616H37.8453C38.2203 34.3637 38.5449 34.2238 38.8188 33.9456C39.0932 33.6664 39.2301 33.3361 39.2301 32.9544C39.2301 32.5728 39.0932 32.2424 38.8188 31.9637C38.545 31.685 38.2204 31.5452 37.8453 31.5452H17.942C18.2883 30.8405 18.4614 30.3713 18.4614 30.1364C18.4614 29.9892 18.4433 29.8277 18.4072 29.6519C18.371 29.4762 18.3279 29.2814 18.2774 29.0682C18.2268 28.856 18.1946 28.6982 18.1802 28.5953L40.7673 25.9093C41.1274 25.865 41.4233 25.7077 41.6541 25.4358C41.8849 25.1646 42 24.8527 42 24.5002V13.2274C41.9998 12.8458 41.8631 12.5156 41.5888 12.2363Z" fill="#333333"/>
<path d="M14.3074 37.1818C14.3074 37.96 14.5777 38.624 15.1186 39.174C15.6597 39.7245 16.3121 39.9999 17.0768 39.9999C17.841 39.9999 18.4937 39.7245 19.0344 39.174C19.5754 38.624 19.846 37.96 19.846 37.1818C19.846 36.4036 19.5756 35.7396 19.0344 35.1891C18.4936 34.6391 17.841 34.3636 17.0768 34.3636C16.3122 34.3636 15.6594 34.6391 15.1186 35.1891C14.578 35.7396 14.3074 36.4036 14.3074 37.1818Z" fill="#333333"/>
</svg>
