<svg width="40" height="20" viewBox="0 0 40 20" fill="none" xmlns="http://www.w3.org/2000/svg">
<rect width="40" height="20" rx="10" fill="#E5E5E5"/>
<circle cx="10" cy="10" r="8" fill="white"/>
</svg>
