<svg width="20" height="20" viewBox="0 0 20 20" fill="none" xmlns="http://www.w3.org/2000/svg">
<rect x="0.5" y="0.5" width="19" height="19" rx="1.5" fill="#FF9E2D" stroke="#FF9E2D"/>
<g clip-path="url(#clip0)">
<path d="M17.5108 5.22261C17.2141 4.9258 16.7329 4.9258 16.436 5.22261L7.33078 14.328L3.83086 10.8281C3.53408 10.5312 3.0529 10.5313 2.75606 10.8281C2.45924 11.1248 2.45924 11.606 2.75606 11.9028L6.79338 15.9401C7.09007 16.2369 7.5716 16.2367 7.86818 15.9401L17.5108 6.29742C17.8077 6.00063 17.8076 5.51943 17.5108 5.22261Z" fill="white"/>
</g>
<defs>
<clipPath id="clip0">
<rect width="16" height="16" fill="white" transform="translate(2 2)"/>
</clipPath>
</defs>
</svg>
